{
    "ABOUT": {
        "ADDRESS": [
            "admin name",
            "company name",
            "department",
            "example street 2",
            "1. floor, room 1",
            "zip city, country"
        ],
        "CONTACT": {
            "EMAIL": "info@example.com",
            "PEOPLE": [
                {
                    "NAME": "staff member 1",
                    "PHONE": "+49(0)123 456-789",
                    "FAX": "+49(0)123 789-456",
                    "EMAIL": "staff1@example.com"
                },
                {
                    "NAME": "staff member 2",
                    "PHONE": "+49(0)721 608-44771"
                }
            ]
        }
    }
}
